Game over! score = 1120, time = 759
Game over! score = 1780, time = 1040
Game over! score = 1460, time = 780
Game over! score = 1220, time = 634
Game over! score = 1620, time = 1671
Game over! score = 780, time = 387
Game over! score = 1170, time = 1371
Game over! score = 4640, time = 1700
Game over! score = 1000, time = 608
Game over! score = 720, time = 529
Game over! score = 560, time = 700
Game over! score = 870, time = 901
Game over! score = 1080, time = 753
Game over! score = 810, time = 916
Game over! score = 1300, time = 1010
Game over! score = 620, time = 679
Game over! score = 920, time = 711
Game over! score = 1250, time = 1278
Game over! score = 1330, time = 782
Game over! score = 930, time = 611
Game over! score = 1110, time = 1069
Game over! score = 1760, time = 1087
Game over! score = 2320, time = 968
Game over! score = 800, time = 485
Game over! score = 720, time = 683
Game over! score = 600, time = 464
Game over! score = 1340, time = 1371
Game over! score = 1220, time = 997
Game over! score = 1030, time = 886
Game over! score = 1000, time = 811
Game over! score = 1160, time = 990
Game over! score = 1010, time = 906
Game over! score = 1170, time = 726
Game over! score = 620, time = 704
Game over! score = 760, time = 700
Game over! score = 880, time = 813
Game over! score = 1320, time = 1351
Game over! score = 500, time = 471
Game over! score = 730, time = 560
Game over! score = 1810, time = 870
Game over! score = 500, time = 495
Game over! score = 1040, time = 883
Game over! score = 1230, time = 1043
Game over! score = 1750, time = 1399
Game over! score = 1180, time = 873
Game over! score = 1720, time = 1077
Game over! score = 1120, time = 675
Game over! score = 740, time = 525
Game over! score = 630, time = 425
Game over! score = 1100, time = 798
Average score = 1161, Average time = 858.5